%YAML 1.1
%TAG !u! tag:unity3d.com,2011:
--- !u!114 &11400000
MonoBehaviour:
  m_ObjectHideFlags: 0
  m_CorrespondingSourceObject: {fileID: 0}
  m_PrefabInstance: {fileID: 0}
  m_PrefabAsset: {fileID: 0}
  m_GameObject: {fileID: 0}
  m_Enabled: 1
  m_EditorHideFlags: 0
  m_Script: {fileID: -1893448595, guid: a040fb66244a7f54289914d98ea4ef7d, type: 3}
  m_Name: Apply score to Hud
  m_EditorClassIdentifier: 
  _data:
    _json: '{"graph":{"variables":{"collection":{"$content":[],"$version":"A"},"$version":"A"},"controlInputDefinitions":[],"controlOutputDefinitions":[],"valueInputDefinitions":[],"valueOutputDefinitions":[],"title":null,"summary":null,"pan":{"x":-41.83841,"y":72.18096},"zoom":0.8,"elements":[{"argumentCount":1,"coroutine":false,"defaultValues":{"target":{"$content":0,"$type":"UnityEngine.Object"},"name":{"$content":"ScoreUpdate","$type":"System.String"}},"position":{"x":-263.0,"y":61.0},"guid":"00d5f0b1-475d-460c-8273-bdd50edf2323","$version":"A","$type":"Bolt.CustomEvent","$id":"9"},{"chainable":false,"member":{"name":"text","parameterTypes":null,"targetType":"UnityEngine.UI.Text","targetTypeName":"UnityEngine.UI.Text","$version":"A"},"defaultValues":{"target":null,"input":{"$content":"","$type":"System.String"}},"position":{"x":148.0,"y":57.0},"guid":"0dbf4eae-9b61-4a72-8973-e8f08c0a12e9","$version":"A","$type":"Bolt.SetMember","$id":"11"},{"type":"System.String","value":{"$content":"Score:
      ","$type":"System.String"},"defaultValues":{},"position":{"x":-182.0,"y":-89.0},"guid":"e16b874d-366e-4048-98a0-4a7a7027d15d","$version":"A","$type":"Bolt.Literal","$id":"14"},{"chainable":false,"member":{"name":"Concat","parameterTypes":["System.Object","System.Object"],"targetType":"System.String","targetTypeName":"System.String","$version":"A"},"defaultValues":{},"position":{"x":19.0,"y":-85.0},"guid":"a20624a5-ecc6-4379-8914-94e300e3081a","$version":"A","$type":"Bolt.InvokeMember","$id":"16"},{"specifyFallback":false,"kind":"Application","defaultValues":{"name":{"$content":"Player","$type":"System.String"}},"position":{"x":-452.0,"y":55.0},"guid":"b35802e0-0bf7-4349-b456-afb10884880a","$version":"A","$type":"Bolt.GetVariable","$id":"19"},{"sourceUnit":{"$ref":"9"},"sourceKey":"trigger","destinationUnit":{"$ref":"11"},"destinationKey":"assign","guid":"73365555-50aa-48ef-b67d-de4f98e44de6","$type":"Bolt.ControlConnection"},{"sourceUnit":{"$ref":"9"},"sourceKey":"argument_0","destinationUnit":{"$ref":"16"},"destinationKey":"%arg1","guid":"96fc79a9-62e4-47d0-a739-49698245b044","$type":"Bolt.ValueConnection"},{"sourceUnit":{"$ref":"16"},"sourceKey":"result","destinationUnit":{"$ref":"11"},"destinationKey":"input","guid":"1d43c916-3c9c-4393-ba48-a781f08fd028","$type":"Bolt.ValueConnection"},{"sourceUnit":{"$ref":"14"},"sourceKey":"output","destinationUnit":{"$ref":"16"},"destinationKey":"%arg0","guid":"ee6cc681-c9bb-43e4-83cb-d48c0000bcf8","$type":"Bolt.ValueConnection"},{"sourceUnit":{"$ref":"19"},"sourceKey":"value","destinationUnit":{"$ref":"9"},"destinationKey":"target","guid":"303143c6-3f34-4c72-8833-7d827043f338","$type":"Bolt.ValueConnection"}],"$version":"A"}}'
    _objectReferences:
    - {fileID: 1968476592218994, guid: 313ad0ef31f75b84f9f31c0528802fdd, type: 3}
