%YAML 1.1
%TAG !u! tag:unity3d.com,2011:
--- !u!114 &11400000
MonoBehaviour:
  m_ObjectHideFlags: 0
  m_CorrespondingSourceObject: {fileID: 0}
  m_PrefabInstance: {fileID: 0}
  m_PrefabAsset: {fileID: 0}
  m_GameObject: {fileID: 0}
  m_Enabled: 1
  m_EditorHideFlags: 0
  m_Script: {fileID: -1893448595, guid: a040fb66244a7f54289914d98ea4ef7d, type: 3}
  m_Name: HudLoader
  m_EditorClassIdentifier: 
  _data:
    _json: '{"graph":{"variables":{"collection":{"$content":[],"$version":"A"},"$version":"A"},"controlInputDefinitions":[],"controlOutputDefinitions":[],"valueInputDefinitions":[],"valueOutputDefinitions":[],"title":null,"summary":null,"pan":{"x":-645.6639,"y":-281.6736},"zoom":0.9500001,"elements":[{"coroutine":false,"defaultValues":{},"position":{"x":-918.0,"y":-415.0},"guid":"94e4b7e4-baa5-418a-bf60-817bf27ff963","$version":"A","$type":"Bolt.Start","$id":"9"},{"chainable":false,"member":{"name":"LoadScene","parameterTypes":["System.String","UnityEngine.SceneManagement.LoadSceneMode"],"targetType":"UnityEngine.SceneManagement.SceneManager","targetTypeName":"UnityEngine.SceneManagement.SceneManager","$version":"A"},"defaultValues":{"%sceneName":{"$content":"HUD","$type":"System.String"},"%mode":{"$content":"Additive","$type":"UnityEngine.SceneManagement.LoadSceneMode"}},"position":{"x":-718.0,"y":-412.0},"guid":"d95f699c-a507-4ab9-9b2f-f732c93c1967","$version":"A","$type":"Bolt.InvokeMember","$id":"11"},{"sourceUnit":{"$ref":"9"},"sourceKey":"trigger","destinationUnit":{"$ref":"11"},"destinationKey":"enter","guid":"a54787c4-16fb-4eaf-935d-d1e72b2cbb85","$type":"Bolt.ControlConnection"}],"$version":"A"}}'
    _objectReferences: []
