%YAML 1.1
%TAG !u! tag:unity3d.com,2011:
--- !u!114 &11400000
MonoBehaviour:
  m_ObjectHideFlags: 0
  m_CorrespondingSourceObject: {fileID: 0}
  m_PrefabInstance: {fileID: 0}
  m_PrefabAsset: {fileID: 0}
  m_GameObject: {fileID: 0}
  m_Enabled: 1
  m_EditorHideFlags: 0
  m_Script: {fileID: -1893448595, guid: a040fb66244a7f54289914d98ea4ef7d, type: 3}
  m_Name: Player
  m_EditorClassIdentifier: 
  _data:
    _json: '{"graph":{"variables":{"collection":{"$content":[{"name":"score","value":{"$content":0.0,"$type":"System.Single"},"$version":"A"}],"$version":"A"},"$version":"A"},"controlInputDefinitions":[],"controlOutputDefinitions":[],"valueInputDefinitions":[],"valueOutputDefinitions":[],"title":null,"summary":null,"pan":{"x":1626.519,"y":-295.035},"zoom":0.8000001,"elements":[{"coroutine":false,"defaultValues":{},"position":{"x":-308.0,"y":-232.0},"guid":"70274944-2818-4195-bfb1-fcd894cde195","$version":"A","$type":"Bolt.OnEnable","$id":"10"},{"chainable":false,"member":{"name":"Destroy","parameterTypes":["UnityEngine.Object"],"targetType":"UnityEngine.GameObject","targetTypeName":"UnityEngine.GameObject","$version":"A"},"defaultValues":{"%obj":null},"position":{"x":1753.0,"y":57.0},"guid":"9e62f622-d1d4-420d-999f-a88d4abc7186","$version":"A","$type":"Bolt.InvokeMember","$id":"12"},{"chainable":false,"member":{"name":"velocity","parameterTypes":null,"targetType":"UnityEngine.Rigidbody","targetTypeName":"UnityEngine.Rigidbody","$version":"A"},"defaultValues":{"target":null,"input":{"x":0.0,"y":0.0,"z":0.0,"$type":"UnityEngine.Vector3"}},"position":{"x":531.0,"y":822.0},"guid":"73c9230d-5103-44e1-945a-e6d5264180e3","$version":"A","$type":"Bolt.SetMember","$id":"15"},{"coroutine":false,"defaultValues":{"target":null},"position":{"x":-372.0,"y":480.0},"guid":"959ef7ad-6eb2-4720-ab24-cdfc100a7768","$version":"A","$type":"Bolt.OnCollisionExit","$id":"18"},{"kind":"Application","defaultValues":{"name":{"$content":"Horizontal","$type":"System.String"}},"position":{"x":514.0,"y":2041.0},"guid":"bb2b5fed-b931-4d53-8902-d535c6a9c82b","$version":"A","$type":"Bolt.SetVariable","$id":"20"},{"member":{"name":"deltaTime","parameterTypes":null,"targetType":"UnityEngine.Time","targetTypeName":"UnityEngine.Time","$version":"A"},"defaultValues":{},"position":{"x":-323.0,"y":1541.0},"guid":"185a4089-b78e-4580-a940-bd1ac9b19532","$version":"A","$type":"Bolt.GetMember","$id":"22"},{"argumentCount":1,"defaultValues":{"name":{"$content":"AddScore","$type":"System.String"},"target":null},"position":{"x":1569.0,"y":42.0},"guid":"d9dc3e61-99f4-43eb-ae9b-b4b59855726d","$version":"A","$type":"Bolt.TriggerCustomEvent","$id":"25"},{"kind":"Application","defaultValues":{"name":{"$content":"CanJump","$type":"System.String"}},"position":{"x":57.0,"y":454.0},"guid":"6d179ebb-536c-4fa9-a7d7-9a8d1d4483f3","$version":"A","$type":"Bolt.SetVariable","$id":"27"},{"defaultValues":{"b":{"$content":1.0,"$type":"System.Single"}},"position":{"x":-301.0,"y":1418.0},"guid":"61536fdb-0c39-404a-a137-644438f14a46","$version":"A","$type":"Bolt.ScalarMultiply","$id":"29"},{"specifyFallback":false,"kind":"Application","defaultValues":{"name":{"$content":"MouseVertical","$type":"System.String"}},"position":{"x":-586.0,"y":2923.0},"guid":"ed9ff9f7-46ce-4a52-91ac-d496b7b2ff4f","$version":"A","$type":"Bolt.GetVariable"},{"chainable":false,"member":{"name":"GetActiveScene","parameterTypes":[],"targetType":"UnityEngine.SceneManagement.SceneManager","targetTypeName":"UnityEngine.SceneManagement.SceneManager","$version":"A"},"defaultValues":{},"position":{"x":544.0,"y":85.0},"guid":"fb1de61b-d08d-4bf1-bac3-9bff00fa5fd9","$version":"A","$type":"Bolt.InvokeMember","$id":"33"},{"specifyFallback":false,"kind":"Application","defaultValues":{"name":{"$content":"Player","$type":"System.String"}},"position":{"x":1311.0,"y":155.0},"guid":"b3d6ba91-50b6-4d27-95fb-6dfad367ff4a","$version":"A","$type":"Bolt.GetVariable","$id":"36"},{"member":{"name":"y","parameterTypes":null,"targetType":"UnityEngine.Vector3","targetTypeName":"UnityEngine.Vector3","$version":"A"},"defaultValues":{"target":{"x":0.0,"y":0.0,"z":0.0,"$type":"UnityEngine.Vector3"}},"position":{"x":-98.0,"y":1317.0},"guid":"7d3d55f6-9502-4fe7-90b3-f1820f13bc1e","$version":"A","$type":"Bolt.GetMember","$id":"38"},{"specifyFallback":false,"kind":"Application","defaultValues":{"name":{"$content":"Player","$type":"System.String"}},"position":{"x":1256.0,"y":642.0},"guid":"1a2d0456-988c-4f1b-ac56-0f9f09398897","$version":"A","$type":"Bolt.GetVariable","$id":"41"},{"coroutine":false,"defaultValues":{},"position":{"x":-535.0,"y":2458.0},"guid":"909bed85-99d8-4b61-b835-a6975e0e076a","$version":"A","$type":"Bolt.LateUpdate","$id":"43"},{"chainable":false,"member":{"name":"localRotation","parameterTypes":null,"targetType":"UnityEngine.Transform","targetTypeName":"UnityEngine.Transform","$version":"A"},"defaultValues":{"target":null},"position":{"x":50.0,"y":2798.0},"guid":"d3ae1798-4f11-4a75-801d-ddea43c2dd97","$version":"A","$type":"Bolt.SetMember","$id":"45"},{"numeric":false,"defaultValues":{},"position":{"x":1646.0,"y":-465.0},"guid":"9b52a04d-0b72-40a8-a1af-56c6a471560b","$version":"A","$type":"Bolt.Equal","$id":"48"},{"chainable":false,"member":{"name":".ctor","parameterTypes":["System.Single","System.Single","System.Single"],"targetType":"UnityEngine.Vector3","targetTypeName":"UnityEngine.Vector3","$version":"A"},"defaultValues":{"%x":{"$content":0.0,"$type":"System.Single"},"%y":{"$content":0.0,"$type":"System.Single"},"%z":{"$content":0.0,"$type":"System.Single"}},"position":{"x":-317.0,"y":810.0},"guid":"ef0f63ab-4b52-4262-b60b-92edff761ebb","$version":"A","$type":"Bolt.InvokeMember","$id":"50"},{"argumentCount":1,"coroutine":false,"defaultValues":{"target":null,"name":{"$content":"Damage","$type":"System.String"}},"position":{"x":684.0,"y":-548.0},"guid":"599cb3b5-cffb-4ca3-8646-a81ea270c797","$version":"A","$type":"Bolt.CustomEvent","$id":"53"},{"specifyFallback":false,"kind":"Application","defaultValues":{"name":{"$content":"CanJump","$type":"System.String"}},"position":{"x":-286.0,"y":103.0},"guid":"c335b265-a45e-47d2-b274-7ef2b82217bd","$version":"A","$type":"Bolt.GetVariable","$id":"55"},{"chainable":false,"member":{"name":"GetAxis","parameterTypes":["System.String"],"targetType":"UnityEngine.Input","targetTypeName":"UnityEngine.Input","$version":"A"},"defaultValues":{"%axisName":{"$content":"Mouse
      Y","$type":"System.String"}},"position":{"x":-191.0,"y":1707.0},"guid":"a8080463-41e4-4d5f-8bf7-b1db3306465d","$version":"A","$type":"Bolt.InvokeMember","$id":"57"},{"argumentCount":1,"coroutine":false,"defaultValues":{"target":null,"name":{"$content":"SubScore","$type":"System.String"}},"position":{"x":1984.0,"y":386.0},"guid":"e81d8e6f-6fdc-4609-8bbe-ba11b857ce66","$version":"A","$type":"Bolt.CustomEvent","$id":"60"},{"chainable":false,"member":{"name":"GetAxisRaw","parameterTypes":["System.String"],"targetType":"UnityEngine.Input","targetTypeName":"UnityEngine.Input","$version":"A"},"defaultValues":{"%axisName":{"$content":"Vertical","$type":"System.String"}},"position":{"x":-572.0,"y":1183.0},"guid":"f5c635ac-c31d-48fa-9b47-197ce13bae78","$version":"A","$type":"Bolt.InvokeMember","$id":"62"},{"specifyFallback":false,"kind":"Graph","defaultValues":{"name":{"$content":"score","$type":"System.String"}},"position":{"x":2016.0,"y":530.0},"guid":"17dafcb9-5844-4b40-93d9-f5e12c8086c7","$version":"A","$type":"Bolt.GetVariable","$id":"65"},{"chainable":false,"member":{"name":"velocity","parameterTypes":null,"targetType":"UnityEngine.Rigidbody","targetTypeName":"UnityEngine.Rigidbody","$version":"A"},"defaultValues":{"target":null,"input":{"x":0.0,"y":0.0,"z":0.0,"$type":"UnityEngine.Vector3"}},"position":{"x":262.0,"y":-14.0},"guid":"20e775f8-9372-4ab4-8007-5e6fa7d5e179","$version":"A","$type":"Bolt.SetMember","$id":"67"},{"defaultValues":{"b":{"$content":1.0,"$type":"System.Single"}},"position":{"x":-60.0,"y":1413.0},"guid":"f9618f97-f855-49d1-a5af-a643179fcf18","$version":"A","$type":"Bolt.ScalarMultiply","$id":"70"},{"argumentCount":0,"coroutine":false,"defaultValues":{"target":null,"name":{"$content":"Damage","$type":"System.String"}},"position":{"x":584.0,"y":-90.0},"guid":"0f7e40be-08c4-449c-aae1-7aeace13472a","$version":"A","$type":"Bolt.CustomEvent"},{"chainable":false,"member":{"name":"Euler","parameterTypes":["UnityEngine.Vector3"],"targetType":"UnityEngine.Quaternion","targetTypeName":"UnityEngine.Quaternion","$version":"A"},"defaultValues":{"%euler":{"x":0.0,"y":0.0,"z":0.0,"$type":"UnityEngine.Vector3"}},"position":{"x":-139.0,"y":2791.0},"guid":"70158b92-9d8e-4203-b549-add69a4a69b6","$version":"A","$type":"Bolt.InvokeMember","$id":"74"},{"argumentCount":0,"coroutine":false,"defaultValues":{"target":null,"name":{"$content":"Death","$type":"System.String"}},"position":{"x":601.0,"y":320.0},"guid":"394cc4fa-1683-41a9-8e7a-43fc5bc4b137","$version":"A","$type":"Bolt.CustomEvent","$id":"77"},{"defaultValues":{"dividend":{"$content":1.0,"$type":"System.Single"},"divisor":{"$content":1.0,"$type":"System.Single"}},"position":{"x":108.0,"y":1199.0},"guid":"52769467-642b-4b39-a49a-bfaf69a4f333","$version":"A","$type":"Bolt.ScalarDivide","$id":"79"},{"outputCount":2,"defaultValues":{},"position":{"x":-384.0,"y":1701.0},"guid":"3a425ba7-f02e-485f-b751-ff522a2d6fae","$version":"A","$type":"Bolt.Sequence","$id":"81"},{"type":"System.Int32","value":{"$content":2,"$type":"System.Int32"},"defaultValues":{},"position":{"x":1508.0,"y":689.0},"guid":"fa05cf9b-51c9-4f78-ac7d-9d8c8f47c9c5","$version":"A","$type":"Bolt.Literal","$id":"83"},{"chainable":false,"member":{"name":"Euler","parameterTypes":["UnityEngine.Vector3"],"targetType":"UnityEngine.Quaternion","targetTypeName":"UnityEngine.Quaternion","$version":"A"},"defaultValues":{"%euler":{"x":0.0,"y":0.0,"z":0.0,"$type":"UnityEngine.Vector3"}},"position":{"x":-109.0,"y":2441.0},"guid":"2c9288cf-5c72-451e-91d8-a8a3d24f16ad","$version":"A","$type":"Bolt.InvokeMember","$id":"85"},{"defaultValues":{"b":{"$content":1.0,"$type":"System.Single"}},"position":{"x":221.0,"y":2182.0},"guid":"cc392727-08a2-486d-9808-e90414345b39","$version":"A","$type":"Bolt.ScalarAdd","$id":"88"},{"kind":"Object","defaultValues":{"name":{"$content":"Health","$type":"System.String"},"object":null},"position":{"x":1278.0,"y":-530.0},"guid":"caff8d81-b81a-48f5-ad4c-60ad9248fde7","$version":"A","$type":"Bolt.SetVariable","$id":"90"},{"kind":"Graph","defaultValues":{"name":{"$content":"score","$type":"System.String"}},"position":{"x":2268.0,"y":-56.0},"guid":"0ea5dcaa-0934-4c5b-9823-fba29b16921d","$version":"A","$type":"Bolt.SetVariable","$id":"92"},{"specifyFallback":false,"kind":"Application","defaultValues":{"name":{"$content":"PlayerVelocity","$type":"System.String"}},"position":{"x":75.0,"y":936.0},"guid":"b24984bc-dab3-44f3-a027-9438a6294778","$version":"A","$type":"Bolt.GetVariable","$id":"94"},{"coroutine":false,"defaultValues":{},"position":{"x":-565.0,"y":2808.0},"guid":"84dfe2eb-db16-4e52-b29b-9e77360c5b27","$version":"A","$type":"Bolt.LateUpdate"},{"specifyFallback":false,"kind":"Application","defaultValues":{"name":{"$content":"PlayerSpeed","$type":"System.String"}},"position":{"x":-584.0,"y":1315.0},"guid":"5eb0b9ef-330d-4636-808e-ff0307e7815f","$version":"A","$type":"Bolt.GetVariable","$id":"98"},{"specifyFallback":false,"kind":"Application","defaultValues":{"name":{"$content":"Horizontal","$type":"System.String"}},"position":{"x":-556.0,"y":2573.0},"guid":"5c9eeb3f-864e-41bd-9328-10ceab8881e4","$version":"A","$type":"Bolt.GetVariable","$id":"100"},{"chainable":false,"member":{"name":"LoadScene","parameterTypes":["System.String"],"targetType":"UnityEngine.SceneManagement.SceneManager","targetTypeName":"UnityEngine.SceneManagement.SceneManager","$version":"A"},"defaultValues":{"%sceneName":{"$content":"","$type":"System.String"}},"position":{"x":923.0,"y":-26.0},"guid":"5cf75b91-4028-496d-a5ea-fe843b11b759","$version":"A","$type":"Bolt.InvokeMember","$id":"102"},{"type":"System.Boolean","value":{"$content":true,"$type":"System.Boolean"},"defaultValues":{},"position":{"x":-95.0,"y":390.0},"guid":"8e00b6a3-4099-4a57-9ee8-f345353a7da7","$version":"A","$type":"Bolt.Literal","$id":"105"},{"chainable":false,"member":{"name":"position","parameterTypes":null,"targetType":"UnityEngine.Transform","targetTypeName":"UnityEngine.Transform","$version":"A"},"defaultValues":{"target":null,"input":{"x":1.54,"y":0.722,"z":-0.344,"$type":"UnityEngine.Vector3"}},"position":{"x":1989.0,"y":-383.0},"guid":"c16344b1-ddc6-4c6a-8861-ab8043756286","$version":"A","$type":"Bolt.SetMember","$id":"107"},{"kind":"Graph","defaultValues":{"name":{"$content":"score","$type":"System.String"}},"position":{"x":2373.0,"y":416.0},"guid":"5dc7c985-8762-4a81-9302-f1e7409a10f3","$version":"A","$type":"Bolt.SetVariable","$id":"110"},{"defaultValues":{"b":{"$content":1.0,"$type":"System.Single"}},"position":{"x":69.0,"y":1867.0},"guid":"002d7514-f37d-49b1-acd5-43dd4043da93","$version":"A","$type":"Bolt.ScalarMultiply","$id":"112"},{"chainable":false,"member":{"name":"Clamp","parameterTypes":["System.Single","System.Single","System.Single"],"targetType":"UnityEngine.Mathf","targetTypeName":"UnityEngine.Mathf","$version":"A"},"defaultValues":{"%value":{"$content":0.0,"$type":"System.Single"},"%min":{"$content":-75.0,"$type":"System.Single"},"%max":{"$content":75.0,"$type":"System.Single"}},"position":{"x":-397.0,"y":2953.0},"guid":"3bef93a0-23c8-46b1-88e1-a86703150d5f","$version":"A","$type":"Bolt.InvokeMember","$id":"114"},{"specifyFallback":false,"kind":"Application","defaultValues":{"name":{"$content":"Horizontal","$type":"System.String"}},"position":{"x":-202.0,"y":2312.0},"guid":"81a79c6f-bb5b-4008-8a68-d06b44d30004","$version":"A","$type":"Bolt.GetVariable","$id":"117"},{"defaultValues":{"b":{"$content":1.0,"$type":"System.Single"}},"position":{"x":-63.0,"y":1204.0},"guid":"b5c2ff47-90fa-4eca-94ce-d1b1f181560f","$version":"A","$type":"Bolt.ScalarMultiply","$id":"119"},{"specifyFallback":false,"kind":"Application","defaultValues":{"name":{"$content":"PlayerLookSpeed","$type":"System.String"}},"position":{"x":-208.0,"y":1871.0},"guid":"aeb83d72-112a-455b-8fff-78e96636851c","$version":"A","$type":"Bolt.GetVariable","$id":"121"},{"chainable":false,"member":{"name":".ctor","parameterTypes":["System.Single","System.Single","System.Single"],"targetType":"UnityEngine.Vector3","targetTypeName":"UnityEngine.Vector3","$version":"A"},"defaultValues":{"%x":{"$content":0.0,"$type":"System.Single"},"%y":{"$content":0.0,"$type":"System.Single"},"%z":{"$content":0.0,"$type":"System.Single"}},"position":{"x":-272.0,"y":2789.0},"guid":"4abe410c-2c13-42b3-abe5-f3ec54d54732","$version":"A","$type":"Bolt.InvokeMember","$id":"123"},{"defaultValues":{},"position":{"x":953.0,"y":-466.0},"guid":"384813a2-fac3-4a5e-bc25-830964e59342","$version":"A","$type":"Bolt.GenericSubtract","$id":"126"},{"type":"System.Int32","value":{"$content":1,"$type":"System.Int32"},"defaultValues":{},"position":{"x":1459.0,"y":237.0},"guid":"c400429c-2500-440e-842f-272460118593","$version":"A","$type":"Bolt.Literal","$id":"128"},{"specifyFallback":false,"kind":"Application","defaultValues":{"name":{"$content":"JumpForce","$type":"System.String"}},"position":{"x":-70.0,"y":151.0},"guid":"efc7e8c2-7eae-4a61-a823-04c9910c4c94","$version":"A","$type":"Bolt.GetVariable","$id":"130"},{"kind":"Application","defaultValues":{"name":{"$content":"PlayerVelocity","$type":"System.String"}},"position":{"x":-125.0,"y":813.0},"guid":"f86deee1-3b9c-4fa4-9c52-a3f7dc09ab29","$version":"A","$type":"Bolt.SetVariable","$id":"132"},{"specifyFallback":false,"kind":"Application","defaultValues":{"name":{"$content":"MouseVertical","$type":"System.String"}},"position":{"x":-192.0,"y":1971.0},"guid":"1405ebfa-e247-48e8-8ad4-cab019c15544","$version":"A","$type":"Bolt.GetVariable","$id":"134"},{"coroutine":false,"defaultValues":{},"position":{"x":-536.0,"y":810.0},"guid":"daec859f-0bc5-45d7-832b-3a56aacd40ae","$version":"A","$type":"Bolt.FixedUpdate","$id":"136"},{"argumentCount":1,"defaultValues":{"name":{"$content":"ScoreUpdate","$type":"System.String"},"target":null},"position":{"x":2625.0,"y":406.0},"guid":"9e49050c-4d68-4561-8bf7-d2f63db7a12a","$version":"A","$type":"Bolt.TriggerCustomEvent","$id":"138"},{"member":{"name":"velocity","parameterTypes":null,"targetType":"UnityEngine.Rigidbody","targetTypeName":"UnityEngine.Rigidbody","$version":"A"},"defaultValues":{"target":null},"position":{"x":-297.0,"y":1321.0},"guid":"4bdb0815-db3e-4c75-bc9c-f99f0916eed5","$version":"A","$type":"Bolt.GetMember","$id":"140"},{"defaultValues":{},"position":{"x":2125.0,"y":31.0},"guid":"43206434-097e-466c-90ec-9603f35b701a","$version":"A","$type":"Bolt.GenericAdd","$id":"143"},{"chainable":false,"member":{"name":"TransformDirection","parameterTypes":["UnityEngine.Vector3"],"targetType":"UnityEngine.Transform","targetTypeName":"UnityEngine.Transform","$version":"A"},"defaultValues":{"target":null,"%direction":{"x":0.0,"y":0.0,"z":0.0,"$type":"UnityEngine.Vector3"}},"position":{"x":287.0,"y":822.0},"guid":"2ec53589-7da8-4460-b120-52c829c09a06","$version":"A","$type":"Bolt.InvokeMember","$id":"145"},{"defaultValues":{},"position":{"x":-60.0,"y":-4.0},"guid":"7dc77e04-4c17-46ce-87a9-c6b024c91dec","$version":"A","$type":"Bolt.Branch","$id":"148"},{"inputCount":2,"defaultValues":{},"position":{"x":1126.0,"y":-364.0},"guid":"4280f0f4-aa72-4b4d-8c2c-56693cce631b","$version":"A","$type":"Bolt.ScalarMaximum","$id":"150"},{"chainable":false,"member":{"name":"Clamp","parameterTypes":["System.Single","System.Single","System.Single"],"targetType":"UnityEngine.Mathf","targetTypeName":"UnityEngine.Mathf","$version":"A"},"defaultValues":{"%value":{"$content":0.0,"$type":"System.Single"},"%min":{"$content":-75.0,"$type":"System.Single"},"%max":{"$content":75.0,"$type":"System.Single"}},"position":{"x":298.0,"y":1375.0},"guid":"16efb510-7b12-40cd-bb74-28d6ebc08d88","$version":"A","$type":"Bolt.InvokeMember","$id":"152"},{"chainable":false,"member":{"name":"GetAxis","parameterTypes":["System.String"],"targetType":"UnityEngine.Input","targetTypeName":"UnityEngine.Input","$version":"A"},"defaultValues":{"%axisName":{"$content":"Horizontal","$type":"System.String"}},"position":{"x":-200.0,"y":2070.0},"guid":"eb0ec4a5-dfd5-4bec-8058-832fd9513f73","$version":"A","$type":"Bolt.InvokeMember","$id":"155"},{"member":{"name":"main","parameterTypes":null,"targetType":"UnityEngine.Camera","targetTypeName":"UnityEngine.Camera","$version":"A"},"defaultValues":{},"position":{"x":-174.0,"y":2975.0},"guid":"3e82e0ad-c19c-4bcc-9d86-a0de5b5c0772","$version":"A","$type":"Bolt.GetMember","$id":"158"},{"argumentCount":0,"coroutine":false,"defaultValues":{"target":null,"name":{"$content":"Win","$type":"System.String"}},"position":{"x":601.0,"y":534.0},"guid":"561180e5-6357-4da3-9da6-e8c1aab6b24c","$version":"A","$type":"Bolt.CustomEvent","$id":"161"},{"specifyFallback":false,"kind":"Graph","defaultValues":{"name":{"$content":"score","$type":"System.String"}},"position":{"x":1911.0,"y":58.0},"guid":"ac44ed2d-2f66-446d-ba83-c32a5c5356b9","$version":"A","$type":"Bolt.GetVariable","$id":"163"},{"specifyFallback":false,"kind":"Object","defaultValues":{"name":{"$content":"Health","$type":"System.String"},"object":null},"position":{"x":720.0,"y":-355.0},"guid":"01dd602b-9a9e-43f5-b8ff-1d2ed752c231","$version":"A","$type":"Bolt.GetVariable","$id":"165"},{"defaultValues":{},"position":{"x":2217.0,"y":502.0},"guid":"9af30e65-da4b-419d-8073-62fe6f527322","$version":"A","$type":"Bolt.GenericSubtract","$id":"167"},{"chainable":false,"member":{"name":".ctor","parameterTypes":["System.Single","System.Single","System.Single"],"targetType":"UnityEngine.Vector3","targetTypeName":"UnityEngine.Vector3","$version":"A"},"defaultValues":{"%x":{"$content":0.0,"$type":"System.Single"},"%y":{"$content":0.0,"$type":"System.Single"},"%z":{"$content":0.0,"$type":"System.Single"}},"position":{"x":-242.0,"y":2439.0},"guid":"e5172379-7c0e-4fcb-bcc9-8261abcd2cfc","$version":"A","$type":"Bolt.InvokeMember","$id":"169"},{"coroutine":false,"defaultValues":{"buttonName":{"$content":"Jump","$type":"System.String"},"action":{"$content":"Hold","$type":"Ludiq.PressState"}},"position":{"x":-298.0,"y":-44.0},"guid":"71a30a98-d43b-4cf0-8de7-6496d16a8c19","$version":"A","$type":"Bolt.OnButtonInput","$id":"172"},{"defaultValues":{"b":{"$content":1.0,"$type":"System.Single"}},"position":{"x":-304.0,"y":1209.0},"guid":"9645b9ea-2090-4888-88db-834346ba3c27","$version":"A","$type":"Bolt.ScalarMultiply","$id":"174"},{"type":"System.Int32","value":{"$content":0,"$type":"System.Int32"},"defaultValues":{},"position":{"x":1520.0,"y":-359.0},"guid":"97acedc4-f06f-4a95-b244-6c73fcdd9d7c","$version":"A","$type":"Bolt.Literal","$id":"176"},{"kind":"Application","defaultValues":{"name":{"$content":"CanJump","$type":"System.String"}},"position":{"x":38.0,"y":274.0},"guid":"29536fe0-fd6e-4bdd-b810-86fb57d44661","$version":"A","$type":"Bolt.SetVariable","$id":"178"},{"argumentCount":0,"defaultValues":{"name":{"$content":"Death","$type":"System.String"},"target":null},"position":{"x":2024.0,"y":-551.0},"guid":"ecf732d9-4fbb-43ae-9efb-5cd769e57e28","$version":"A","$type":"Bolt.TriggerCustomEvent","$id":"180"},{"coroutine":false,"defaultValues":{},"position":{"x":-639.0,"y":1700.0},"guid":"a6e5d4b2-c53b-49f0-adef-ee0966453d2d","$version":"A","$type":"Bolt.Update","$id":"182"},{"argumentCount":1,"coroutine":false,"defaultValues":{"target":null,"name":{"$content":"AddScore","$type":"System.String"}},"position":{"x":1879.0,"y":-86.0},"guid":"43ba2deb-3812-4a45-bf1e-6af4a135cc5b","$version":"A","$type":"Bolt.CustomEvent","$id":"184"},{"member":{"name":"deltaTime","parameterTypes":null,"targetType":"UnityEngine.Time","targetTypeName":"UnityEngine.Time","$version":"A"},"defaultValues":{},"position":{"x":-318.0,"y":1077.0},"guid":"e52b7fb1-c3fc-4588-8b2c-be2ba8c97521","$version":"A","$type":"Bolt.GetMember","$id":"186"},{"argumentCount":1,"defaultValues":{"name":{"$content":"SubScore","$type":"System.String"},"target":null},"position":{"x":1662.0,"y":491.0},"guid":"6c4bc93b-39fd-4405-87b4-9891c9ee76eb","$version":"A","$type":"Bolt.TriggerCustomEvent","$id":"189"},{"chainable":false,"member":{"name":"LoadScene","parameterTypes":["System.String"],"targetType":"UnityEngine.SceneManagement.SceneManager","targetTypeName":"UnityEngine.SceneManagement.SceneManager","$version":"A"},"defaultValues":{"%sceneName":{"$content":"WinState","$type":"System.String"}},"position":{"x":812.0,"y":528.0},"guid":"68c19736-7d6c-40a8-9631-3a2e24d72f90","$version":"A","$type":"Bolt.InvokeMember","$id":"191"},{"chainable":false,"member":{"name":"Clamp","parameterTypes":["System.Single","System.Single","System.Single"],"targetType":"UnityEngine.Mathf","targetTypeName":"UnityEngine.Mathf","$version":"A"},"defaultValues":{"%value":{"$content":0.0,"$type":"System.Single"},"%min":{"$content":-75.0,"$type":"System.Single"},"%max":{"$content":75.0,"$type":"System.Single"}},"position":{"x":216.0,"y":1694.0},"guid":"2eb4f6c7-7f56-4e38-aeb1-362570c31d4c","$version":"A","$type":"Bolt.InvokeMember","$id":"194"},{"chainable":false,"member":{"name":"Clamp","parameterTypes":["System.Single","System.Single","System.Single"],"targetType":"UnityEngine.Mathf","targetTypeName":"UnityEngine.Mathf","$version":"A"},"defaultValues":{"%value":{"$content":0.0,"$type":"System.Single"},"%min":{"$content":-75.0,"$type":"System.Single"},"%max":{"$content":75.0,"$type":"System.Single"}},"position":{"x":309.0,"y":1190.0},"guid":"6bafb4fe-1b4e-4b71-9fa2-36041bc79bf9","$version":"A","$type":"Bolt.InvokeMember","$id":"197"},{"type":"System.Boolean","value":{"$content":false,"$type":"System.Boolean"},"defaultValues":{},"position":{"x":-76.0,"y":570.0},"guid":"348270df-d375-45dc-ae63-38fa544ac14b","$version":"A","$type":"Bolt.Literal","$id":"200"},{"chainable":false,"member":{"name":"localRotation","parameterTypes":null,"targetType":"UnityEngine.Transform","targetTypeName":"UnityEngine.Transform","$version":"A"},"defaultValues":{"target":null},"position":{"x":80.0,"y":2448.0},"guid":"b18bef00-6d9f-4634-ab22-b8c42c302e41","$version":"A","$type":"Bolt.SetMember","$id":"202"},{"defaultValues":{},"position":{"x":1844.0,"y":-547.0},"guid":"839c240c-cf93-4a6e-893a-7118367a3175","$version":"A","$type":"Bolt.Branch","$id":"205"},{"nest":{"source":"Macro","macro":0,"embed":null},"defaultValues":{"tag":{"$content":"GoodOrb","$type":"System.String"}},"position":{"x":1275.0,"y":42.0},"guid":"63598c6c-816c-4287-9b10-17d8024e73fc","$version":"A","$type":"Bolt.SuperUnit","$id":"207"},{"argumentCount":1,"defaultValues":{"name":{"$content":"ScoreUpdate","$type":"System.String"},"target":null},"position":{"x":2520.0,"y":-66.0},"guid":"b1f939cf-8944-48bb-8696-36de92e0dacb","$version":"A","$type":"Bolt.TriggerCustomEvent","$id":"210"},{"chainable":false,"member":{"name":".ctor","parameterTypes":["System.Single","System.Single","System.Single"],"targetType":"UnityEngine.Vector3","targetTypeName":"UnityEngine.Vector3","$version":"A"},"defaultValues":{"%x":{"$content":0.0,"$type":"System.Single"},"%y":{"$content":0.0,"$type":"System.Single"},"%z":{"$content":0.0,"$type":"System.Single"}},"position":{"x":104.0,"y":-14.0},"guid":"5e0f5620-1ff9-42f7-af51-c37e97f13f29","$version":"A","$type":"Bolt.InvokeMember","$id":"212"},{"chainable":false,"member":{"name":"GetAxisRaw","parameterTypes":["System.String"],"targetType":"UnityEngine.Input","targetTypeName":"UnityEngine.Input","$version":"A"},"defaultValues":{"%axisName":{"$content":"Horizontal","$type":"System.String"}},"position":{"x":-608.0,"y":1436.0},"guid":"86d60767-1f54-481f-a832-3879ea9391ee","$version":"A","$type":"Bolt.InvokeMember"},{"specifyFallback":false,"kind":"Application","defaultValues":{"name":{"$content":"PlayerRotateSpeed","$type":"System.String"}},"position":{"x":-238.0,"y":2188.0},"guid":"6db24c8c-051c-4404-b379-f1383811f988","$version":"A","$type":"Bolt.GetVariable","$id":"218"},{"defaultValues":{"b":{"$content":1.0,"$type":"System.Single"}},"position":{"x":235.0,"y":1914.0},"guid":"408228a8-d390-4880-8b2e-13e3ece8dfe2","$version":"A","$type":"Bolt.ScalarAdd","$id":"220"},{"chainable":false,"member":{"name":"lockState","parameterTypes":null,"targetType":"UnityEngine.Cursor","targetTypeName":"UnityEngine.Cursor","$version":"A"},"defaultValues":{"input":{"$content":"None","$type":"UnityEngine.CursorLockMode"}},"position":{"x":211.0,"y":-242.0},"guid":"80b1b94a-fd24-4297-be55-9676e7e38072","$version":"A","$type":"Bolt.SetMember","$id":"222"},{"nest":{"source":"Macro","macro":1,"embed":null},"defaultValues":{"tag":{"$content":"BadOrb","$type":"System.String"}},"position":{"x":1233.0,"y":500.0},"guid":"7aa38530-6c46-47cb-848e-1471869ae457","$version":"A","$type":"Bolt.SuperUnit","$id":"225"},{"coroutine":false,"defaultValues":{"target":null},"position":{"x":-374.0,"y":269.0},"guid":"a06fa521-b350-4bb8-966b-ddde38ac43f2","$version":"A","$type":"Bolt.OnCollisionStay","$id":"228"},{"type":"System.Int32","value":{"$content":0,"$type":"System.Int32"},"defaultValues":{},"position":{"x":951.0,"y":-281.0},"guid":"1d1f015f-659a-4c85-a665-d4b206ebbb4e","$version":"A","$type":"Bolt.Literal","$id":"230"},{"chainable":false,"member":{"name":"LoadScene","parameterTypes":["System.String"],"targetType":"UnityEngine.SceneManagement.SceneManager","targetTypeName":"UnityEngine.SceneManagement.SceneManager","$version":"A"},"defaultValues":{"%sceneName":{"$content":"LoseState","$type":"System.String"}},"position":{"x":812.0,"y":314.0},"guid":"914f1352-d077-43db-a068-6e11344cee9f","$version":"A","$type":"Bolt.InvokeMember","$id":"232"},{"member":{"name":"name","parameterTypes":null,"targetType":"UnityEngine.SceneManagement.Scene","targetTypeName":"UnityEngine.SceneManagement.Scene","$version":"A"},"defaultValues":{},"position":{"x":757.0,"y":90.0},"guid":"87a29e5a-1401-4520-847e-b941eb1d495a","$version":"A","$type":"Bolt.GetMember","$id":"235"},{"defaultValues":{"dividend":{"$content":1.0,"$type":"System.Single"},"divisor":{"$content":1.0,"$type":"System.Single"}},"position":{"x":125.0,"y":1411.0},"guid":"481f368e-6753-4d5c-8869-5ed557d3cf18","$version":"A","$type":"Bolt.ScalarDivide","$id":"238"},{"defaultValues":{"b":{"$content":1.0,"$type":"System.Single"}},"position":{"x":48.0,"y":2130.0},"guid":"fd9cd5e0-03a3-49bf-afed-7594ac512119","$version":"A","$type":"Bolt.ScalarMultiply","$id":"240"},{"chainable":false,"member":{"name":"visible","parameterTypes":null,"targetType":"UnityEngine.Cursor","targetTypeName":"UnityEngine.Cursor","$version":"A"},"defaultValues":{"input":{"$content":false,"$type":"System.Boolean"}},"position":{"x":-43.0,"y":-232.0},"guid":"26627f86-510a-4b0e-bcfd-0bd0211d57d5","$version":"A","$type":"Bolt.SetMember","$id":"242"},{"kind":"Application","defaultValues":{"name":{"$content":"MouseVertical","$type":"System.String"}},"position":{"x":392.0,"y":1691.0},"guid":"d6329b01-6a93-4c99-8437-6983784e0ded","$version":"A","$type":"Bolt.SetVariable","$id":"245"},{"chainable":false,"member":{"name":"Destroy","parameterTypes":["UnityEngine.Object"],"targetType":"UnityEngine.GameObject","targetTypeName":"UnityEngine.GameObject","$version":"A"},"defaultValues":{"%obj":null},"position":{"x":1858.0,"y":508.0},"guid":"c9e9ead9-d96c-4d09-a2cb-93c80da81e41","$version":"A","$type":"Bolt.InvokeMember","$id":"247"},{"sourceUnit":{"$ref":"25"},"sourceKey":"exit","destinationUnit":{"$ref":"12"},"destinationKey":"enter","guid":"ba90e58c-c54f-4f7b-aeb7-17480f456c91","$type":"Bolt.ControlConnection"},{"sourceUnit":{"$ref":"194"},"sourceKey":"exit","destinationUnit":{"$ref":"245"},"destinationKey":"assign","guid":"1d286889-ca42-4b2d-9de1-48c546fc2296","$type":"Bolt.ControlConnection"},{"sourceUnit":{"$ref":"242"},"sourceKey":"assigned","destinationUnit":{"$ref":"222"},"destinationKey":"assign","guid":"0fd90144-9b63-42cc-b4f4-665f427a537f","$type":"Bolt.ControlConnection"},{"sourceUnit":{"$ref":"136"},"sourceKey":"trigger","destinationUnit":{"$ref":"50"},"destinationKey":"enter","guid":"c1052cd2-c79b-4f96-8542-32ae44f454a6","$type":"Bolt.ControlConnection"},{"sourceUnit":{"$ref":"212"},"sourceKey":"exit","destinationUnit":{"$ref":"67"},"destinationKey":"assign","guid":"7b68e211-ab92-465a-b9f8-358a5b86bde9","$type":"Bolt.ControlConnection"},{"sourceUnit":{"$ref":"205"},"sourceKey":"ifTrue","destinationUnit":{"$ref":"180"},"destinationKey":"enter","guid":"68a551c8-2eb8-43e5-a420-507aed3d7937","$type":"Bolt.ControlConnection"},{"sourceUnit":{"$ref":"182"},"sourceKey":"trigger","destinationUnit":{"$ref":"81"},"destinationKey":"enter","guid":"ec75b976-97c4-4472-b296-edb97a2cd7df","$type":"Bolt.ControlConnection"},{"sourceUnit":{"$ref":"50"},"sourceKey":"exit","destinationUnit":{"$ref":"132"},"destinationKey":"assign","guid":"9c1aa56b-9faf-41dd-8085-33aa02911840","$type":"Bolt.ControlConnection"},{"sourceUnit":{"$ref":"123"},"sourceKey":"exit","destinationUnit":{"$ref":"74"},"destinationKey":"enter","guid":"c413fe29-fc2c-453a-9e52-0a5749a3042f","$type":"Bolt.ControlConnection"},{"sourceUnit":{"$ref":"18"},"sourceKey":"trigger","destinationUnit":{"$ref":"27"},"destinationKey":"assign","guid":"dded4e11-5b96-4729-b978-8162315b403b","$type":"Bolt.ControlConnection"},{"sourceUnit":{"$ref":"145"},"sourceKey":"exit","destinationUnit":{"$ref":"15"},"destinationKey":"assign","guid":"1c63f009-827f-4689-9b23-82348d33dfa9","$type":"Bolt.ControlConnection"},{"sourceUnit":{"$ref":"207"},"sourceKey":"true","destinationUnit":{"$ref":"25"},"destinationKey":"enter","guid":"3eb5addf-3430-4113-a77a-634dd514726e","$type":"Bolt.ControlConnection"},{"sourceUnit":{"$ref":"10"},"sourceKey":"trigger","destinationUnit":{"$ref":"242"},"destinationKey":"assign","guid":"4f45c3bd-a790-45cb-80a1-629d22a47457","$type":"Bolt.ControlConnection"},{"sourceUnit":{"$ref":"53"},"sourceKey":"trigger","destinationUnit":{"$ref":"90"},"destinationKey":"assign","guid":"f38c315d-b9f0-4528-9b5a-b2fe1d326dd3","$type":"Bolt.ControlConnection"},{"sourceUnit":{"$ref":"132"},"sourceKey":"assigned","destinationUnit":{"$ref":"145"},"destinationKey":"enter","guid":"3340984d-b626-4217-a23b-c6f08b1ded4d","$type":"Bolt.ControlConnection"},{"sourceUnit":{"$ref":"85"},"sourceKey":"exit","destinationUnit":{"$ref":"202"},"destinationKey":"assign","guid":"eb3a235d-77d1-4e6a-9dd2-b01650027395","$type":"Bolt.ControlConnection"},{"sourceUnit":{"$ref":"228"},"sourceKey":"trigger","destinationUnit":{"$ref":"178"},"destinationKey":"assign","guid":"ede9a82d-0857-41b8-a68b-184c1f4322ba","$type":"Bolt.ControlConnection"},{"sourceUnit":{"$ref":"57"},"sourceKey":"exit","destinationUnit":{"$ref":"194"},"destinationKey":"enter","guid":"6bf980fd-09b7-4702-bcd9-76039f61e683","$type":"Bolt.ControlConnection"},{"sourceUnit":{"$ref":"74"},"sourceKey":"exit","destinationUnit":{"$ref":"45"},"destinationKey":"assign","guid":"9d1de3e5-bc34-4a3c-bbfc-3e54edf8fb75","$type":"Bolt.ControlConnection"},{"sourceUnit":{"$ref":"81"},"sourceKey":"1","destinationUnit":{"$ref":"155"},"destinationKey":"enter","guid":"8fc495a0-03eb-4a1f-9613-3dbb61bf7a55","$type":"Bolt.ControlConnection"},{"sourceUnit":{"$ref":"225"},"sourceKey":"true","destinationUnit":{"$ref":"189"},"destinationKey":"enter","guid":"02e4cd65-4ea6-4bce-a6f1-307f031c9cf4","$type":"Bolt.ControlConnection"},{"sourceUnit":{"$ref":"161"},"sourceKey":"trigger","destinationUnit":{"$ref":"191"},"destinationKey":"enter","guid":"64c62b5a-aaec-4054-b20e-3ef4e94ce9e5","$type":"Bolt.ControlConnection"},{"sourceUnit":{"$ref":"189"},"sourceKey":"exit","destinationUnit":{"$ref":"247"},"destinationKey":"enter","guid":"a269ddf5-c03f-4fab-a17d-8f8b74c8fb57","$type":"Bolt.ControlConnection"},{"sourceUnit":{"$ref":"60"},"sourceKey":"trigger","destinationUnit":{"$ref":"110"},"destinationKey":"assign","guid":"9b8309e5-d213-438f-88c8-85d32fdbd0a5","$type":"Bolt.ControlConnection"},{"sourceUnit":{"$ref":"43"},"sourceKey":"trigger","destinationUnit":{"$ref":"169"},"destinationKey":"enter","guid":"407d6d2b-35f5-4de4-a1bb-963754f65a11","$type":"Bolt.ControlConnection"},{"sourceUnit":{"$ref":"155"},"sourceKey":"exit","destinationUnit":{"$ref":"20"},"destinationKey":"assign","guid":"75733715-d191-41fc-ba46-574f8fb935aa","$type":"Bolt.ControlConnection"},{"sourceUnit":{"$ref":"205"},"sourceKey":"ifFalse","destinationUnit":{"$ref":"107"},"destinationKey":"assign","guid":"c78ab886-73c4-42ea-9685-65140cbfe64c","$type":"Bolt.ControlConnection"},{"sourceUnit":{"$ref":"92"},"sourceKey":"assigned","destinationUnit":{"$ref":"210"},"destinationKey":"enter","guid":"e7870e85-25c8-4a9f-a20c-13221b96f744","$type":"Bolt.ControlConnection"},{"sourceUnit":{"$ref":"184"},"sourceKey":"trigger","destinationUnit":{"$ref":"92"},"destinationKey":"assign","guid":"fce3db44-d920-4c7f-bc2c-655134d626c9","$type":"Bolt.ControlConnection"},{"sourceUnit":{"$ref":"148"},"sourceKey":"ifTrue","destinationUnit":{"$ref":"212"},"destinationKey":"enter","guid":"50d8a881-415c-4ef8-983b-30d73838790f","$type":"Bolt.ControlConnection"},{"sourceUnit":{"$ref":"77"},"sourceKey":"trigger","destinationUnit":{"$ref":"232"},"destinationKey":"enter","guid":"981cf7d8-d923-4b95-a857-cdf58b473a1e","$type":"Bolt.ControlConnection"},{"sourceUnit":{"$ref":"90"},"sourceKey":"assigned","destinationUnit":{"$ref":"205"},"destinationKey":"enter","guid":"e7061b7e-e09f-4c36-b794-6dc3e5a7e508","$type":"Bolt.ControlConnection"},{"sourceUnit":{"$ref":"110"},"sourceKey":"assigned","destinationUnit":{"$ref":"138"},"destinationKey":"enter","guid":"d189168e-11e0-4183-b38f-ed06240bf61d","$type":"Bolt.ControlConnection"},{"sourceUnit":{"$ref":"172"},"sourceKey":"trigger","destinationUnit":{"$ref":"148"},"destinationKey":"enter","guid":"5f6ba096-a257-440e-854c-d249d7da56b1","$type":"Bolt.ControlConnection"},{"sourceUnit":{"$ref":"169"},"sourceKey":"exit","destinationUnit":{"$ref":"85"},"destinationKey":"enter","guid":"8e795562-054c-4854-8aab-459bf37f1145","$type":"Bolt.ControlConnection"},{"sourceUnit":{"$ref":"83"},"sourceKey":"output","destinationUnit":{"$ref":"189"},"destinationKey":"argument_0","guid":"61e96743-9e0b-4146-85df-50c81a54ad77","$type":"Bolt.ValueConnection"},{"sourceUnit":{"$ref":"62"},"sourceKey":"result","destinationUnit":{"$ref":"174"},"destinationKey":"b","guid":"62e85e52-0e44-4795-a853-d503f2dd7484","$type":"Bolt.ValueConnection"},{"sourceUnit":{"$ref":"174"},"sourceKey":"product","destinationUnit":{"$ref":"119"},"destinationKey":"a","guid":"0e278f25-d267-41e7-9397-a5a70e3b71d9","$type":"Bolt.ValueConnection"},{"sourceUnit":{"$ref":"220"},"sourceKey":"sum","destinationUnit":{"$ref":"194"},"destinationKey":"%value","guid":"b65de147-ad35-4ca3-a4a4-8df4aecbb557","$type":"Bolt.ValueConnection"},{"sourceUnit":{"$ref":"167"},"sourceKey":"difference","destinationUnit":{"$ref":"110"},"destinationKey":"input","guid":"cafa7bc1-c26f-4423-9b79-73cbf68c63e5","$type":"Bolt.ValueConnection"},{"sourceUnit":{"$ref":"238"},"sourceKey":"quotient","destinationUnit":{"$ref":"152"},"destinationKey":"%value","guid":"906a8c59-4df0-42c7-b38d-f1a402631ac1","$type":"Bolt.ValueConnection"},{"sourceUnit":{"$ref":"50"},"sourceKey":"result","destinationUnit":{"$ref":"132"},"destinationKey":"input","guid":"29f94f9f-740b-4217-9283-2f968045856e","$type":"Bolt.ValueConnection"},{"sourceUnit":{"$ref":"36"},"sourceKey":"value","destinationUnit":{"$ref":"25"},"destinationKey":"target","guid":"3e460ddd-696d-4f81-8441-4939553aee7a","$type":"Bolt.ValueConnection"},{"sourceUnit":{"$ref":"126"},"sourceKey":"difference","destinationUnit":{"$ref":"150"},"destinationKey":"0","guid":"1ccb887c-6811-49f2-a115-87f993e04777","$type":"Bolt.ValueConnection"},{"sourceUnit":{"$ref":"194"},"sourceKey":"result","destinationUnit":{"$ref":"245"},"destinationKey":"input","guid":"368ec391-0f75-4d34-b8e9-0e32c9d8c433","$type":"Bolt.ValueConnection"},{"sourceUnit":{"$ref":"121"},"sourceKey":"value","destinationUnit":{"$ref":"112"},"destinationKey":"b","guid":"7c56f91f-3cc2-40a2-b75b-1440e81c7618","$type":"Bolt.ValueConnection"},{"sourceUnit":{"$ref":"114"},"sourceKey":"result","destinationUnit":{"$ref":"123"},"destinationKey":"%x","guid":"526038d5-008f-4217-b94e-dfeadf769cb9","$type":"Bolt.ValueConnection"},{"sourceUnit":{"$ref":"57"},"sourceKey":"result","destinationUnit":{"$ref":"112"},"destinationKey":"a","guid":"7a47b78a-033e-4507-8c47-bb1b48b4ab15","$type":"Bolt.ValueConnection"},{"sourceUnit":{"$ref":"163"},"sourceKey":"value","destinationUnit":{"$ref":"143"},"destinationKey":"b","guid":"8d80655f-f874-4bb8-b292-ba337eab54fc","$type":"Bolt.ValueConnection"},{"sourceUnit":{"$ref":"85"},"sourceKey":"result","destinationUnit":{"$ref":"202"},"destinationKey":"input","guid":"8d43b458-2dca-43fd-bd34-0eacd8f726a8","$type":"Bolt.ValueConnection"},{"sourceUnit":{"$ref":"235"},"sourceKey":"value","destinationUnit":{"$ref":"102"},"destinationKey":"%sceneName","guid":"8bbb58d5-ab2e-412a-b587-a75535b9a7ec","$type":"Bolt.ValueConnection"},{"sourceUnit":{"$ref":"169"},"sourceKey":"result","destinationUnit":{"$ref":"85"},"destinationKey":"%euler","guid":"e42b80f1-12da-4307-b560-0692736821f8","$type":"Bolt.ValueConnection"},{"sourceUnit":{"$ref":"41"},"sourceKey":"value","destinationUnit":{"$ref":"189"},"destinationKey":"target","guid":"106615a7-6142-4e90-ba85-dee7d9d115e2","$type":"Bolt.ValueConnection"},{"sourceUnit":{"$ref":"74"},"sourceKey":"result","destinationUnit":{"$ref":"45"},"destinationKey":"input","guid":"cd27b507-4eb9-493f-b65a-38683a5b029f","$type":"Bolt.ValueConnection"},{"sourceUnit":{"$ref":"230"},"sourceKey":"output","destinationUnit":{"$ref":"150"},"destinationKey":"1","guid":"1e472dd3-5d73-420c-a8ad-2bca7d081169","$type":"Bolt.ValueConnection"},{"sourceUnit":{"$ref":"112"},"sourceKey":"product","destinationUnit":{"$ref":"220"},"destinationKey":"a","guid":"6ad22d12-f017-4188-89dc-3b08e8ef1efc","$type":"Bolt.ValueConnection"},{"sourceUnit":{"$ref":"218"},"sourceKey":"value","destinationUnit":{"$ref":"240"},"destinationKey":"b","guid":"d82da2ff-7de5-4616-a52f-64b0f743d12c","$type":"Bolt.ValueConnection"},{"sourceUnit":{"$ref":"70"},"sourceKey":"product","destinationUnit":{"$ref":"238"},"destinationKey":"dividend","guid":"2d277c40-7322-48f7-b87c-d46662daf2c8","$type":"Bolt.ValueConnection"},{"sourceUnit":{"$ref":"38"},"sourceKey":"value","destinationUnit":{"$ref":"50"},"destinationKey":"%y","guid":"88772996-0e60-401c-a686-b7fe8cb0da47","$type":"Bolt.ValueConnection"},{"sourceUnit":{"$ref":"119"},"sourceKey":"product","destinationUnit":{"$ref":"79"},"destinationKey":"dividend","guid":"e7baefa6-6524-496d-9e77-1436104617ff","$type":"Bolt.ValueConnection"},{"sourceUnit":{"$ref":"105"},"sourceKey":"output","destinationUnit":{"$ref":"178"},"destinationKey":"input","guid":"190b9dd9-9a7c-4e5a-b3de-d85022f0d872","$type":"Bolt.ValueConnection"},{"sourceUnit":{"$ref":"184"},"sourceKey":"argument_0","destinationUnit":{"$ref":"143"},"destinationKey":"a","guid":"669495d2-ee94-4840-9b84-e27878b08488","$type":"Bolt.ValueConnection"},{"sourceUnit":{"$ref":"165"},"sourceKey":"value","destinationUnit":{"$ref":"126"},"destinationKey":"minuend","guid":"b7423f2a-81b3-478b-8447-2ee43904ba02","$type":"Bolt.ValueConnection"},{"sourceUnit":{"$ref":"200"},"sourceKey":"output","destinationUnit":{"$ref":"27"},"destinationKey":"input","guid":"a5b6e699-0cb4-4357-ac89-e4718d111704","$type":"Bolt.ValueConnection"},{"sourceUnit":{"$ref":"130"},"sourceKey":"value","destinationUnit":{"$ref":"212"},"destinationKey":"%y","guid":"bdf2521e-5325-4f95-bd11-3636f4182347","$type":"Bolt.ValueConnection"},{"sourceUnit":{"$ref":"88"},"sourceKey":"sum","destinationUnit":{"$ref":"20"},"destinationKey":"input","guid":"d851d7cd-3746-4cf9-b3c0-f54dcf01dd00","$type":"Bolt.ValueConnection"},{"sourceUnit":{"$ref":"33"},"sourceKey":"result","destinationUnit":{"$ref":"235"},"destinationKey":"target","guid":"efcf5186-bf48-47c9-b256-9ae1b5faa182","$type":"Bolt.ValueConnection"},{"sourceUnit":{"$ref":"100"},"sourceKey":"value","destinationUnit":{"$ref":"169"},"destinationKey":"%y","guid":"4d983409-65ae-4333-a5c8-ad488cecb6ed","$type":"Bolt.ValueConnection"},{"sourceUnit":{"$ref":"186"},"sourceKey":"value","destinationUnit":{"$ref":"119"},"destinationKey":"b","guid":"ef71e281-689f-4ddd-a710-002e855a98b1","$type":"Bolt.ValueConnection"},{"sourceUnit":{"$ref":"176"},"sourceKey":"output","destinationUnit":{"$ref":"48"},"destinationKey":"b","guid":"722e9426-0098-4e16-9af6-4a5f3841acb6","$type":"Bolt.ValueConnection"},{"sourceUnit":{"$ref":"140"},"sourceKey":"value","destinationUnit":{"$ref":"38"},"destinationKey":"target","guid":"deb9e8b8-9fb2-4c75-a4ff-6e91ae7b0e97","$type":"Bolt.ValueConnection"},{"sourceUnit":{"$ref":"143"},"sourceKey":"sum","destinationUnit":{"$ref":"92"},"destinationKey":"input","guid":"2afa02b3-4b39-4a09-9597-65a1f9e545d2","$type":"Bolt.ValueConnection"},{"sourceUnit":{"$ref":"207"},"sourceKey":"object","destinationUnit":{"$ref":"12"},"destinationKey":"%obj","guid":"1933310c-c5d0-4378-abf5-3fa3135033e0","$type":"Bolt.ValueConnection"},{"sourceUnit":{"$ref":"158"},"sourceKey":"value","destinationUnit":{"$ref":"45"},"destinationKey":"target","guid":"d217d1bd-7cfd-40e8-a7fc-56052f2435a0","$type":"Bolt.ValueConnection"},{"sourceUnit":{"$ref":"55"},"sourceKey":"value","destinationUnit":{"$ref":"148"},"destinationKey":"condition","guid":"184ad372-9719-4059-a3d6-26ea7ac8f258","$type":"Bolt.ValueConnection"},{"sourceUnit":{"$ref":"225"},"sourceKey":"object","destinationUnit":{"$ref":"247"},"destinationKey":"%obj","guid":"2fc50cb3-075a-43a7-88e1-76c0ae57d503","$type":"Bolt.ValueConnection"},{"sourceUnit":{"$ref":"92"},"sourceKey":"output","destinationUnit":{"$ref":"210"},"destinationKey":"argument_0","guid":"1f91066a-677e-4bf4-a7d8-fb781052b315","$type":"Bolt.ValueConnection"},{"sourceUnit":{"$ref":"94"},"sourceKey":"value","destinationUnit":{"$ref":"145"},"destinationKey":"%direction","guid":"7c10dc9e-58f5-4d22-b82a-31cb0d38423e","$type":"Bolt.ValueConnection"},{"sourceUnit":{"$ref":"98"},"sourceKey":"value","destinationUnit":{"$ref":"174"},"destinationKey":"a","guid":"eaaabffc-2086-455e-a40a-a36d8d2debb6","$type":"Bolt.ValueConnection"},{"sourceUnit":{"$ref":"22"},"sourceKey":"value","destinationUnit":{"$ref":"70"},"destinationKey":"b","guid":"2c943b5c-1f0f-4bc7-a58d-3ee47400b531","$type":"Bolt.ValueConnection"},{"sourceUnit":{"$ref":"128"},"sourceKey":"output","destinationUnit":{"$ref":"25"},"destinationKey":"argument_0","guid":"78fee59b-3697-4f60-a82a-9641bced0aac","$type":"Bolt.ValueConnection"},{"sourceUnit":{"$ref":"134"},"sourceKey":"value","destinationUnit":{"$ref":"220"},"destinationKey":"b","guid":"ff6a2c69-8a94-4681-a7bd-8a1d293ced1f","$type":"Bolt.ValueConnection"},{"sourceUnit":{"$ref":"155"},"sourceKey":"result","destinationUnit":{"$ref":"240"},"destinationKey":"a","guid":"3be8fe5f-ff75-4b1e-b7c6-82dcc0c94ab8","$type":"Bolt.ValueConnection"},{"sourceUnit":{"$ref":"150"},"sourceKey":"maximum","destinationUnit":{"$ref":"90"},"destinationKey":"input","guid":"3a756952-5b4e-469d-864e-93d6bb2fbbad","$type":"Bolt.ValueConnection"},{"sourceUnit":{"$ref":"79"},"sourceKey":"quotient","destinationUnit":{"$ref":"197"},"destinationKey":"%value","guid":"cfa9fb57-f05e-451e-adef-26011289a29f","$type":"Bolt.ValueConnection"},{"sourceUnit":{"$ref":"65"},"sourceKey":"value","destinationUnit":{"$ref":"167"},"destinationKey":"minuend","guid":"45a33652-3671-4fe7-a30c-f91ef818b87d","$type":"Bolt.ValueConnection"},{"sourceUnit":{"$ref":"90"},"sourceKey":"output","destinationUnit":{"$ref":"48"},"destinationKey":"a","guid":"2fd279cf-4946-453b-8f84-9d6c192ccabd","$type":"Bolt.ValueConnection"},{"sourceUnit":{"$ref":"117"},"sourceKey":"value","destinationUnit":{"$ref":"88"},"destinationKey":"b","guid":"d28d31b7-2d41-4b66-9c19-9bd1fea01c4b","$type":"Bolt.ValueConnection"},{"sourceUnit":{"$ref":"110"},"sourceKey":"output","destinationUnit":{"$ref":"138"},"destinationKey":"argument_0","guid":"6410a0a3-fabc-4dce-a6f0-2e402525226d","$type":"Bolt.ValueConnection"},{"sourceUnit":{"$ref":"29"},"sourceKey":"product","destinationUnit":{"$ref":"70"},"destinationKey":"a","guid":"bf669167-e86a-4868-8955-2e33d9b3ae27","$type":"Bolt.ValueConnection"},{"sourceUnit":{"$ref":"53"},"sourceKey":"argument_0","destinationUnit":{"$ref":"126"},"destinationKey":"subtrahend","guid":"f22256cf-9c28-4e8d-a778-bbf19b23f8c0","$type":"Bolt.ValueConnection"},{"sourceUnit":{"$ref":"60"},"sourceKey":"argument_0","destinationUnit":{"$ref":"167"},"destinationKey":"subtrahend","guid":"b62fab74-05fd-40b3-969e-9c1888848478","$type":"Bolt.ValueConnection"},{"sourceUnit":{"$ref":"145"},"sourceKey":"result","destinationUnit":{"$ref":"15"},"destinationKey":"input","guid":"ddc7f0b8-4967-47ae-9093-6c5dcf3c07a8","$type":"Bolt.ValueConnection"},{"sourceUnit":{"$ref":"240"},"sourceKey":"product","destinationUnit":{"$ref":"88"},"destinationKey":"a","guid":"90a43f0b-a09b-415c-9517-39b93a80b1e7","$type":"Bolt.ValueConnection"},{"sourceUnit":{"$ref":"197"},"sourceKey":"result","destinationUnit":{"$ref":"50"},"destinationKey":"%z","guid":"737f603f-043d-42ce-bb44-cc99fe035f7c","$type":"Bolt.ValueConnection"},{"sourceUnit":{"$ref":"123"},"sourceKey":"result","destinationUnit":{"$ref":"74"},"destinationKey":"%euler","guid":"701a847a-bd6c-4828-8db3-333b21cd0e0a","$type":"Bolt.ValueConnection"},{"sourceUnit":{"$ref":"48"},"sourceKey":"equal","destinationUnit":{"$ref":"205"},"destinationKey":"condition","guid":"630d9c99-89e5-4ed7-848b-10b4a8433364","$type":"Bolt.ValueConnection"},{"sourceUnit":{"$ref":"212"},"sourceKey":"result","destinationUnit":{"$ref":"67"},"destinationKey":"input","guid":"f4564ee0-b1cb-4d86-bc91-56c786ea4abf","$type":"Bolt.ValueConnection"},{"position":{"xMin":562.0,"yMin":480.0,"xMax":1034.0,"yMax":668.0},"label":"Win:
      Win Scene Load","comment":null,"color":{"r":0.0,"g":0.0,"b":0.0,"a":1.0},"guid":"74b601c3-ed0c-4dae-af74-b7eee1fcdb22","$version":"A","$type":"Ludiq.GraphGroup"},{"position":{"xMin":615.0,"yMin":-625.0,"xMax":1447.0,"yMax":-170.0},"label":"Take
      Damage","comment":null,"color":{"r":0.0,"g":0.0,"b":0.0,"a":1.0},"guid":"487265ca-6fd4-4b16-9f82-448d3e61a035","$version":"A","$type":"Ludiq.GraphGroup"},{"position":{"xMin":-712.0,"yMin":1638.0,"xMax":756.0,"yMax":3187.0},"label":"Camra
      controls","comment":null,"color":{"r":0.0,"g":0.0,"b":0.0,"a":1.0},"guid":"28cf29cc-5677-40c1-8474-c08fda91a13a","$version":"A","$type":"Ludiq.GraphGroup"},{"position":{"xMin":-374.4999,"yMin":-308.0,"xMax":498.0002,"yMax":-105.5},"label":"Group","comment":null,"color":{"r":0.0,"g":0.0,"b":0.0,"a":1.0},"guid":"c171bf06-d321-47ba-b4fa-b9968fede5ea","$version":"A","$type":"Ludiq.GraphGroup"},{"position":{"xMin":-463.0,"yMin":-100.0,"xMax":520.0,"yMax":752.0},"label":"Jump","comment":null,"color":{"r":0.0,"g":0.0,"b":0.0,"a":1.0},"guid":"e5215708-c469-4c79-8b3e-f057ddd27cc8","$version":"A","$type":"Ludiq.GraphGroup"},{"position":{"xMin":-642.0,"yMin":747.0,"xMax":713.0,"yMax":1664.0},"label":"Directinal
      Movement","comment":null,"color":{"r":0.0,"g":0.0,"b":0.0,"a":1.0},"guid":"61c381aa-6b6c-43ab-b2af-ca9f9687cd22","$version":"A","$type":"Ludiq.GraphGroup"},{"position":{"xMin":507.0,"yMin":-146.0,"xMax":1093.0,"yMax":242.0},"label":"Simple
      Death: Reaspawn","comment":null,"color":{"r":0.0,"g":0.0,"b":0.0,"a":1.0},"guid":"195b9fae-9428-49a7-b459-f1bd40a7eeb7","$version":"A","$type":"Ludiq.GraphGroup"},{"position":{"xMin":562.0,"yMin":266.0,"xMax":1034.0,"yMax":454.0},"label":"Lose:
      Lose Scene Load","comment":null,"color":{"r":0.0,"g":0.0,"b":0.0,"a":1.0},"guid":"3c0b1fff-e228-444d-8f53-5cc041132441","$version":"A","$type":"Ludiq.GraphGroup"},{"position":{"xMin":1489.666,"yMin":-635.0001,"xMax":2269.666,"yMax":-163.3336},"label":"If
      Health is above 0, respawn, else call Death","comment":null,"color":{"r":0.0,"g":0.0,"b":0.0,"a":1.0},"guid":"2afb28c2-6413-4265-9340-2bced9be0211","$version":"A","$type":"Ludiq.GraphGroup"},{"position":{"xMin":1225.0,"yMin":-162.0,"xMax":2717.0,"yMax":343.0},"label":"Good
      Orb, Add one point on touch","comment":null,"color":{"r":0.0,"g":0.0,"b":0.0,"a":1.0},"guid":"d6a0794d-f86e-4fb9-83e3-6ea8b32788f7","$version":"A","$type":"Ludiq.GraphGroup"},{"position":{"xMin":1173.0,"yMin":334.0,"xMax":2805.0,"yMax":791.0},"label":"Bad
      Orb, Add one pooint on touch","comment":null,"color":{"r":0.0,"g":0.0,"b":0.0,"a":1.0},"guid":"e5479f2b-d314-41ff-8626-fccfb438c464","$version":"A","$type":"Ludiq.GraphGroup"}],"$version":"A"}}'
    _objectReferences:
    - {fileID: 11400000, guid: ddc84b2c966cc9841931d5e556afedb2, type: 2}
    - {fileID: 11400000, guid: ddc84b2c966cc9841931d5e556afedb2, type: 2}
