%YAML 1.1
%TAG !u! tag:unity3d.com,2011:
--- !u!114 &11400000
MonoBehaviour:
  m_ObjectHideFlags: 0
  m_CorrespondingSourceObject: {fileID: 0}
  m_PrefabInstance: {fileID: 0}
  m_PrefabAsset: {fileID: 0}
  m_GameObject: {fileID: 0}
  m_Enabled: 1
  m_EditorHideFlags: 0
  m_Script: {fileID: -1893448595, guid: a040fb66244a7f54289914d98ea4ef7d, type: 3}
  m_Name: PlayButton
  m_EditorClassIdentifier: 
  _data:
    _json: '{"graph":{"variables":{"collection":{"$content":[],"$version":"A"},"$version":"A"},"controlInputDefinitions":[],"controlOutputDefinitions":[],"valueInputDefinitions":[],"valueOutputDefinitions":[],"title":null,"summary":null,"pan":{"x":-142.3447,"y":-10.86883},"zoom":1.0,"elements":[{"coroutine":false,"defaultValues":{"target":null},"position":{"x":-506.0,"y":-129.0},"guid":"2491faf7-263a-459f-be58-89d8e2ef1bf6","$version":"A","$type":"Bolt.OnButtonClick","$id":"9"},{"chainable":false,"member":{"name":"LoadScene","parameterTypes":["System.String"],"targetType":"UnityEngine.SceneManagement.SceneManager","targetTypeName":"UnityEngine.SceneManagement.SceneManager","$version":"A"},"defaultValues":{"%sceneName":{"$content":"","$type":"System.String"}},"position":{"x":-204.0,"y":-114.0},"guid":"b18ad7ac-c724-403a-829c-8cabaa3e57b4","$version":"A","$type":"Bolt.InvokeMember","$id":"11"},{"specifyFallback":false,"kind":"Object","defaultValues":{"name":{"$content":"Game","$type":"System.String"},"object":null},"position":{"x":-477.0,"y":-28.0},"guid":"4ee3b18c-9f87-479b-abf4-73196c828e72","$version":"A","$type":"Bolt.GetVariable","$id":"14"},{"sourceUnit":{"$ref":"9"},"sourceKey":"trigger","destinationUnit":{"$ref":"11"},"destinationKey":"enter","guid":"cb51be12-6259-4fb1-a576-918260787204","$type":"Bolt.ControlConnection"},{"sourceUnit":{"$ref":"14"},"sourceKey":"value","destinationUnit":{"$ref":"11"},"destinationKey":"%sceneName","guid":"2fadb6af-0584-4e4e-a6aa-a6eabc3d7230","$type":"Bolt.ValueConnection"}],"$version":"A"}}'
    _objectReferences: []
